EDA by Pranav Nair in ST558
…
print(diabetes_data)

# A tibble: 253,680 × 22
   Diabetes_012 HighBP HighChol CholCheck   BMI Smoker Stroke
          <dbl>  <dbl>    <dbl>     <dbl> <dbl>  <dbl>  <dbl>
 1            0      1        1         1    40      1      0
 2            0      0        0         0    25      1      0
 3            0      1        1         1    28      0      0
 4            0      1        0         1    27      0      0
 5            0      1        1         1    24      0      0
 6            0      1        1         1    25      1      0
 7            0      1        0         1    30      1      0
 8            0      1        1         1    25      1      0
 9            2      1        1         1    30      1      0
10            0      0        0         1    24      0      0
# ℹ 253,670 more rows
# ℹ 15 more variables: HeartDiseaseorAttack <dbl>, PhysActivity <dbl>,
#   Fruits <dbl>, Veggies <dbl>, HvyAlcoholConsump <dbl>, AnyHealthcare <dbl>,
#   NoDocbcCost <dbl>, GenHlth <dbl>, MentHlth <dbl>, PhysHlth <dbl>,
#   DiffWalk <dbl>, Sex <dbl>, Age <dbl>, Education <dbl>, Income <dbl>
…
print(diabetes_data_fixed)

# A tibble: 253,680 × 22
   Diabetes_012 HighBP HighChol CholCheck   BMI Smoker Stroke
   <fct>        <fct>  <fct>    <fct>     <dbl> <fct>  <fct> 
 1 No Diabetes  Yes    Yes      Yes          40 Yes    No    
 2 No Diabetes  No     No       No           25 Yes    No    
 3 No Diabetes  Yes    Yes      Yes          28 No     No    
 4 No Diabetes  Yes    No       Yes          27 No     No    
 5 No Diabetes  Yes    Yes      Yes          24 No     No    
 6 No Diabetes  Yes    Yes      Yes          25 Yes    No    
 7 No Diabetes  Yes    No       Yes          30 Yes    No    
 8 No Diabetes  Yes    Yes      Yes          25 Yes    No    
 9 Diabetes     Yes    Yes      Yes          30 Yes    No    
10 No Diabetes  No     No       Yes          24 No     No    
# ℹ 253,670 more rows
# ℹ 15 more variables: HeartDiseaseorAttack <fct>, PhysActivity <fct>,
#   Fruits <fct>, Veggies <fct>, HvyAlcoholConsump <fct>, AnyHealthcare <fct>,
#   NoDocbcCost <fct>, GenHlth <dbl>, MentHlth <dbl>, PhysHlth <dbl>,
#   DiffWalk <fct>, Sex <fct>, Age <fct>, Education <fct>, Income <fct>
…
